{
  "commits" : [
    {
      "name" : "glslang",
      "site" : "github",
      "subrepo" : "KhronosGroup/glslang",
      "subdir" : "third_party/glslang",
      "commit" : "88e88e59cb65b677ab13a10fd176ffd4c8d8aecd"
    },
    {
      "name" : "googletest",
      "site" : "github",
      "subrepo" : "google/googletest",
      "subdir" : "third_party/googletest",
      "commit" : "aa148eb2b7f70ede0eb10de34b6254826bfb34f4"
    },
    {
      "name" : "shaderc",
      "site" : "github",
      "subrepo" : "google/shaderc",
      "commit" : "1a149f612bbbf41e31c9a482f9ce9b96d25ec0e3"
    },
    {
      "name" : "spirv-headers",
      "site" : "github",
      "subrepo" : "KhronosGroup/SPIRV-Headers",
      "subdir" : "third_party/spirv-tools/external/spirv-headers",
      "commit" : "88d9403777e2b9dd08d6304d562f990e2e9d36a4"
    },
    {
      "name" : "spirv-tools",
      "site" : "github",
      "subrepo" : "KhronosGroup/SPIRV-Tools",
      "subdir" : "third_party/spirv-tools",
      "commit" : "42037205a8ea9a0b067f5e38a3ecf6a5c1bf4ae4"
    }
  ]
}
